…
pivoted_agg_game_state_xgd <- agg_game_state_xgd |> 
  tidyr::pivot_wider(
    names_from = pre_shot_game_state,
    values_from = c(xgd, prop)
  ) |> 
  dplyr::arrange(desc(prop_leading))
pivoted_agg_game_state_xgd
#> # A tibble: 29 × 7
#>    team    xgd_trailing xgd_neutral xgd_leading prop_trailing prop_neutral prop_leading
#>    <chr>          <dbl>       <dbl>       <dbl>         <dbl>        <dbl>        <dbl>
#>  1 Columb…       0.418       0.574       0.275          0.174        0.394        0.432
#>  2 Orland…       0.230      -0.214       0.486          0.166        0.475        0.359
#>  3 Atlant…       0.277      -0.0180      0.181          0.266        0.385        0.350
#>  4 Sporti…      -0.458      -0.421       0.392          0.237        0.416        0.348
#>  5 St. Lo…      -0.107      -0.223      -0.322          0.186        0.485        0.330
#>  6 Housto…      -0.514      -0.0437      0.653          0.262        0.410        0.328
#>  7 New En…       0.208      -0.0772      0.0538         0.169        0.513        0.318
#>  8 Vancou…       0.0609      0.453       0.0866         0.217        0.475        0.308
#>  9 Charlo…      -0.0656     -0.341      -0.666          0.212        0.489        0.299
#> 10 Philad…       0.706       0.0781     -0.0624         0.232        0.473        0.296
#> # ℹ 19 more rows
```
…
pivoted_agg_game_state_xgd_leagues_cup <- agg_game_state_xgd_leagues_cup |> 
  tidyr::pivot_wider(
    names_from = pre_shot_game_state,
    values_from = c(xgd, prop)
  ) |> 
  dplyr::filter(is_after_leagues_cup) |> 
  dplyr::select(
    team,
    xgd_leading,
    prop_leading
  ) |> 
  dplyr::arrange(desc(prop_leading))
pivoted_agg_game_state_xgd_leagues_cup
#> # A tibble: 29 × 5
#>    team                xgd_leading dur_leading total_dur prop_leading
#>    <chr>                     <dbl>       <dbl>     <dbl>        <dbl>
#>  1 Houston Dynamo           2.37           655      1101        0.595
#>  2 Sporting KC              4.87           467       903        0.517
#>  3 Columbus Crew            3.78           527      1110        0.475
#>  4 Atlanta United          -0.86           458       996        0.460
#>  5 Charlotte FC            -1.5            423      1105        0.383
#>  6 Orlando City             4.4            363      1077        0.337
#>  7 Seattle Sounders FC     -1.28           314       962        0.326
#>  8 Portland Timbers        -0.0500         330      1102        0.299
#>  9 Los Angeles FC           5.75           308      1081        0.285
#> 10 Philadelphia Union      -1.65           299      1079        0.277
#> # ℹ 19 more rows
```
…
