…
      c(
        xgd,
        dur
      ),
      sum
    )
  ) |> 
  dplyr::ungroup() |> 
  tidyr::pivot_wider(
    names_from = pre_shot_game_state,
    values_from = c(xgd, dur)
  ) |> 
  dplyr::arrange(desc(dur_leading))
agg_game_state_shots
#> # A tibble: 29 × 7
#>    team       xgd_trailing xgd_neutral xgd_leading dur_trailing dur_neutral dur_leading
#>    <chr>             <dbl>       <dbl>       <dbl>        <dbl>       <dbl>       <dbl>
#>  1 Columbus …         2.74       8.51         4.47          590        1335        1465
#>  2 Orlando C…         1.43      -3.82         6.54          559        1603        1212
#>  3 Atlanta U…         2.76      -0.260        2.37          897        1298        1180
#>  4 Sporting …        -4.03      -6.5          5.06          792        1391        1163
#>  5 Houston D…        -5.05      -0.67         8.01          884        1380        1104
#>  6 St. Louis…        -0.74      -4           -3.93          620        1617        1100
#>  7 New Engla…         1.29      -1.46         0.63          559        1702        1054
#>  8 Vancouver…         0.49       7.97         0.99          724        1584        1029
#>  9 Charlotte…        -0.52      -6.23        -7.44          713        1643        1005
#> 10 Los Angel…         1.87       3.71        10.8           697        1716        1001
#> # ℹ 19 more rows
```
…
  dplyr::ungroup() |> 
  dplyr::mutate(
    prop_leading = dur_leading / total_dur
  ) |>
  dplyr::filter(is_after_leagues_cup) |> 
  dplyr::select(
    team,
    xgd_leading,
    dur_leading,
    total_dur,
    prop_leading
  ) |> 
  dplyr::arrange(desc(prop_leading))
agg_game_state_shots_leagues_cup
#> # A tibble: 29 × 5
#>    team                xgd_leading dur_leading total_dur prop_leading
#>    <chr>                     <dbl>       <dbl>     <dbl>        <dbl>
#>  1 Houston Dynamo           2.37           655      1101        0.595
#>  2 Sporting KC              4.87           467       903        0.517
#>  3 Columbus Crew            3.78           527      1110        0.475
#>  4 Atlanta United          -0.86           458       996        0.460
#>  5 Charlotte FC            -1.5            423      1105        0.383
#>  6 Orlando City             4.4            363      1077        0.337
#>  7 Seattle Sounders FC     -1.28           314       962        0.326
#>  8 Portland Timbers        -0.0500         330      1102        0.299
#>  9 Los Angeles FC           5.75           308      1081        0.285
#> 10 Philadelphia Union      -1.65           299      1079        0.277
#> # ℹ 19 more rows
```
